<?xml version="1.0" encoding="utf-8"?>
<!-- Generator: Adobe Illustrator 20.1.0, SVG Export Plug-In . SVG Version: 6.00 Build 0)  -->
<svg version="1.1" id="Layer_1" xmlns="http://www.w3.org/2000/svg" xmlns:xlink="http://www.w3.org/1999/xlink" x="0px" y="0px"
	 viewBox="0 0 162 27.3" style="enable-background:new 0 0 162 27.3;" xml:space="preserve">
<style type="text/css">
	.st0{fill:#D7D7D7;}
	.st1{fill-rule:evenodd;clip-rule:evenodd;fill:#231F20;}
	.st2{fill:#F6921E;}
	.st3{fill:#FCB813;}
	.st4{fill:#B6202E;}
	.st5{fill:#E21936;}
</style>
<g>
	<path class="st0" d="M-526.1-57.2h-2.6c-0.9,0-1.7-0.8-1.7-1.7v-1.7l-0.8-0.3l-1.2,1.1c-0.6,0.6-1.8,0.6-2.4,0l-1.8-1.8
		c-0.3-0.3-0.5-0.7-0.5-1.2c0-0.5,0.2-0.9,0.5-1.2l1.2-1.2l-0.3-0.8l-1.7,0c-0.9,0-1.7-0.8-1.7-1.7v-2.6c0-0.9,0.8-1.7,1.7-1.7h1.7
		l0.3-0.8l-1.1-1.2c-0.3-0.3-0.5-0.7-0.5-1.2c0-0.5,0.2-0.9,0.5-1.2l1.8-1.8c0.6-0.6,1.8-0.6,2.4,0l1.2,1.2l0.8-0.3l0-1.7
		c0-0.9,0.8-1.7,1.7-1.7h2.6c0.9,0,1.7,0.8,1.7,1.7v1.7l0.8,0.3l1.2-1.1c0.3-0.3,0.8-0.5,1.2-0.5l0,0c0.5,0,0.9,0.2,1.2,0.5l1.8,1.8
		c0.3,0.3,0.5,0.7,0.5,1.2c0,0.5-0.2,0.9-0.5,1.2l-1.2,1.2l0.3,0.8l1.7,0c0.9,0,1.7,0.8,1.7,1.7v2.6c0,0.9-0.8,1.7-1.7,1.7h-1.7
		l-0.3,0.8l1.1,1.2c0.3,0.3,0.5,0.7,0.5,1.2c0,0.5-0.2,0.9-0.5,1.2l-1.8,1.8c-0.6,0.6-1.8,0.6-2.4,0l-1.2-1.2l-0.8,0.3l0,1.7
		C-524.4-58-525.2-57.2-526.1-57.2L-526.1-57.2z M-528.4-59.2h2v-1.4c0-0.8,0.6-1.6,1.3-1.9l0.7-0.3c0.2-0.1,0.5-0.2,0.8-0.2
		c0.5,0,1.1,0.2,1.4,0.6l1,1l1.4-1.4l-1-1c-0.6-0.6-0.7-1.6-0.4-2.3l0.3-0.7c0.2-0.7,1-1.3,1.8-1.3h1.4v-2h-1.4
		c-0.8,0-1.6-0.6-1.9-1.4l-0.3-0.7c-0.3-0.7-0.2-1.6,0.4-2.2l1-1l-1.4-1.4l-1,1c-0.6,0.6-1.6,0.7-2.3,0.4l-0.7-0.3
		c-0.7-0.2-1.3-1-1.3-1.8v-1.4h-2v1.4c0,0.8-0.6,1.6-1.3,1.9l-0.7,0.3c-0.2,0.1-0.5,0.2-0.8,0.2c-0.5,0-1.1-0.2-1.4-0.6l-1-1
		l-1.4,1.4l1,1c0.6,0.6,0.7,1.6,0.4,2.3l-0.3,0.7c-0.2,0.7-1,1.3-1.8,1.3h-1.4v2h1.4c0.8,0,1.6,0.6,1.9,1.3l0.3,0.7
		c0.3,0.7,0.2,1.6-0.4,2.2l-1,1l1.4,1.4l1-1c0.6-0.6,1.6-0.7,2.3-0.4l0.7,0.3c0.7,0.2,1.3,1,1.3,1.8V-59.2L-528.4-59.2z
		 M-527.4-64.6c-2.4,0-4.4-2-4.4-4.4c0-2.4,2-4.4,4.4-4.4c2.4,0,4.4,2,4.4,4.4C-523-66.6-525-64.6-527.4-64.6L-527.4-64.6z
		 M-527.4-71.4c-1.3,0-2.4,1.1-2.4,2.4c0,1.3,1.1,2.4,2.4,2.4c1.3,0,2.4-1.1,2.4-2.4C-525-70.3-526.1-71.4-527.4-71.4L-527.4-71.4z"
		/>
</g>
<g>
	<polygon class="st1" points="0,27.3 0,0 5.2,0 5.2,27.3 0,27.3 	"/>
	<polygon class="st1" points="10.2,27.3 10.2,0 15.4,0 15.4,27.3 10.2,27.3 	"/>
	<polygon class="st1" points="19.6,27.3 19.6,0 22.2,0 22.2,27.3 19.6,27.3 	"/>
	<polygon class="st1" points="33.3,27.3 33.3,0 36.1,0 36.1,27.3 33.3,27.3 	"/>
	<polygon class="st1" points="40.1,27.3 40.1,0 41.2,0 41.2,27.3 40.1,27.3 	"/>
	<polygon class="st1" points="36.7,27.3 36.7,0 37.8,0 37.8,27.3 36.7,27.3 	"/>
	<polygon class="st1" points="23.9,27.3 23.9,0 31.8,0 31.8,27.3 23.9,27.3 	"/>
	<polygon class="st1" points="42.6,27.3 42.6,0 51.6,0 51.6,27.3 42.6,27.3 	"/>
	<polygon class="st1" points="53.9,27.3 53.9,0 56.3,0 56.3,27.3 53.9,27.3 	"/>
	<polygon class="st1" points="58.4,27.3 58.4,0 59.7,0 59.7,27.3 58.4,27.3 	"/>
	<polygon class="st1" points="61.8,27.3 61.8,0 63.2,0 63.2,27.3 61.8,27.3 	"/>
	<polygon class="st1" points="64.8,27.3 64.8,0 67.3,0 67.3,27.3 64.8,27.3 	"/>
	<polygon class="st1" points="69.2,27.3 69.2,0 76.8,0 76.8,27.3 69.2,27.3 	"/>
	<polygon class="st1" points="78.8,27.3 78.8,0 80.2,0 80.2,27.3 78.8,27.3 	"/>
	<polygon class="st1" points="17.8,27.3 17.8,0 18.8,0 18.8,27.3 17.8,27.3 	"/>
	<polygon class="st1" points="7.5,27.3 7.5,0 8.6,0 8.6,27.3 7.5,27.3 	"/>
	<polygon class="st1" points="81.8,27.3 81.8,0 87,0 87,27.3 81.8,27.3 	"/>
	<polygon class="st1" points="92.1,27.3 92.1,0 97.3,0 97.3,27.3 92.1,27.3 	"/>
	<polygon class="st1" points="101.5,27.3 101.5,0 104.1,0 104.1,27.3 101.5,27.3 	"/>
	<polygon class="st1" points="115.1,27.3 115.1,0 118,0 118,27.3 115.1,27.3 	"/>
	<polygon class="st1" points="122,27.3 122,0 123.1,0 123.1,27.3 122,27.3 	"/>
	<polygon class="st1" points="118.5,27.3 118.5,0 119.7,0 119.7,27.3 118.5,27.3 	"/>
	<polygon class="st1" points="105.7,27.3 105.7,0 113.7,0 113.7,27.3 105.7,27.3 	"/>
	<polygon class="st1" points="124.5,27.3 124.5,0 133.4,0 133.4,27.3 124.5,27.3 	"/>
	<polygon class="st1" points="135.8,27.3 135.8,0 138.2,0 138.2,27.3 135.8,27.3 	"/>
	<polygon class="st1" points="140.2,27.3 140.2,0 141.6,0 141.6,27.3 140.2,27.3 	"/>
	<polygon class="st1" points="143.6,27.3 143.6,0 145,0 145,27.3 143.6,27.3 	"/>
	<polygon class="st1" points="146.6,27.3 146.6,0 149.2,0 149.2,27.3 146.6,27.3 	"/>
	<polygon class="st1" points="151.1,27.3 151.1,0 158.6,0 158.6,27.3 151.1,27.3 	"/>
	<polygon class="st1" points="160.7,27.3 160.7,0 162,0 162,27.3 160.7,27.3 	"/>
	<polygon class="st1" points="99.6,27.3 99.6,0 100.7,0 100.7,27.3 99.6,27.3 	"/>
	<polygon class="st1" points="89.4,27.3 89.4,0 90.4,0 90.4,27.3 89.4,27.3 	"/>
</g>
<polygon class="st2" points="123.2,-66 102.3,-97.4 112.7,-104.4 129.9,-78.6 "/>
<polygon class="st3" points="123.2,-66 129.9,-78.6 92.2,-78.6 92.2,-66 "/>
<polygon class="st4" points="135,-75.5 170.9,-86.5 174.6,-74.5 145,-65.5 "/>
<polygon class="st5" points="135,-75.5 145,-65.5 155.9,-101.6 143.9,-105.2 "/>
<polygon class="st2" points="135.5,-53.7 148,-60.4 148,-22.7 135.5,-22.7 "/>
<polygon class="st3" points="135.5,-53.7 166.7,-32.7 173.7,-43.2 148,-60.4 "/>
<g>
	<polygon class="st2" points="20.7,-82.7 17.2,-87.9 18.9,-89.1 21.8,-84.8 	"/>
	<polygon class="st3" points="20.7,-82.7 21.8,-84.8 15.5,-84.8 15.5,-82.7 	"/>
	<polygon class="st4" points="22.6,-84.3 28.6,-86.1 29.2,-84.1 24.3,-82.6 	"/>
	<polygon class="st5" points="22.6,-84.3 24.3,-82.6 26.1,-88.6 24.1,-89.2 	"/>
	<polygon class="st2" points="22.7,-80.6 24.8,-81.7 24.8,-75.4 22.7,-75.4 	"/>
	<polygon class="st3" points="22.7,-80.6 27.9,-77.1 29.1,-78.9 24.8,-81.7 	"/>
	<path class="st5" d="M3.2-80.2c-3.4,0-6.1,2.8-6.1,6.1c0,3.4,2.7,6.1,6.1,6.1c3.4,0,6.1-2.8,6.1-6.1C9.3-77.5,6.6-80.2,3.2-80.2z
		 M3.2-70.2c-2.1,0-3.9-1.7-3.9-3.9c0-2.1,1.7-3.9,3.9-3.9c2.1,0,3.9,1.8,3.9,3.9C7.1-71.9,5.4-70.2,3.2-70.2z"/>
	<polygon class="st5" points="16.2,-74.1 20.6,-79 20.6,-79 19.1,-80.6 19.1,-80.6 19.1,-80.6 13.8,-74.7 13.8,-80 13.8,-80 
		11.3,-80 11.3,-80 11.3,-68.2 11.3,-68.2 13.8,-68.2 13.8,-68.2 13.8,-68.2 13.8,-73.2 18.4,-68.2 18.4,-68.2 21.5,-68.2 
		21.5,-68.2 	"/>
	<path class="st5" d="M32.9-69.5c-1.8,0-2.9-1.3-2.9-3c0-1.8,1.1-3.1,2.9-3.1c0.6,0,1.2,0.1,1.8,0.5l0.1-1.4
		c-0.6-0.2-1.4-0.4-1.9-0.4c-2.9,0-4.7,1.6-4.7,4.6c0,2.9,1.9,4.3,4.7,4.3c0.6,0,1.3-0.1,1.9-0.3l-0.1-1.4
		C34.3-69.7,33.5-69.5,32.9-69.5z"/>
	<path class="st5" d="M39-76.7l-3.3,8.5h1.8l0.7-2h3.5l0.7,2h1.9l-3.3-8.5H39z M38.7-71.5l1.2-3.5h0l1.2,3.5H38.7z"/>
	<path class="st5" d="M46.7-74.5c0-0.9,0.8-1.2,1.3-1.2c0.6,0,1.2,0.1,1.7,0.4l0.2-1.4c-0.6-0.2-1.3-0.3-2-0.3c-1.5,0-3,0.7-3,2.6
		c0,2.8,3.7,2.2,3.7,3.8c0,0.8-0.9,1.1-1.5,1.1c-0.7,0-1.3-0.2-1.9-0.5L45-68.5c0.8,0.2,1.3,0.3,2.2,0.3c1.7,0,3.2-0.7,3.2-2.6
		C50.4-73.6,46.7-73,46.7-74.5z"/>
	<polygon class="st5" points="56.8,-73.3 53.4,-73.3 53.4,-76.7 51.7,-76.7 51.7,-68.2 53.4,-68.2 53.4,-71.9 56.8,-71.9 
		56.8,-68.2 58.5,-68.2 58.5,-76.7 56.8,-76.7 	"/>
	<path class="st5" d="M64.4-72.6L64.4-72.6c1-0.2,1.7-0.9,1.7-1.9c0-1.9-1.6-2.2-2.7-2.2h-3v8.5h3c1.1,0,3-0.3,3-2.5
		C66.4-71.7,65.6-72.5,64.4-72.6z M62.1-75.4h0.7c0.8,0,1.6,0.1,1.6,1.1c0,0.9-0.9,1-1.6,1h-0.7V-75.4z M62.9-69.5h-0.8V-72h0.8
		c0.9,0,1.8,0.2,1.8,1.3C64.7-69.7,63.7-69.5,62.9-69.5z"/>
	<path class="st5" d="M70.1-76.7l-3.3,8.5h1.8l0.7-2h3.5l0.7,2h1.9l-3.3-8.5H70.1z M69.8-71.5l1.2-3.5h0l1.2,3.5H69.8z"/>
	<path class="st5" d="M79.5-73.2v1.3h1.8v2.2c-0.3,0.1-0.7,0.1-1.1,0.1c-1.8,0-2.9-1.3-2.9-3c0-1.8,1.1-3.1,3.1-3.1
		c0.7,0,1.5,0.1,2.2,0.5l0.1-1.4C82-76.9,81.2-77,80.2-77c-2.9,0-4.7,1.6-4.7,4.6c0,2.9,1.9,4.3,4.7,4.3c0.9,0,1.9-0.2,2.8-0.4v-4.6
		H79.5z"/>
</g>
</svg>
